[gd_scene load_steps=8 format=2]

[ext_resource path="res://assests/UI/flatLight26.png" type="Texture" id=1]
[ext_resource path="res://assests/UI/flatLight47.png" type="Texture" id=2]
[ext_resource path="res://assests/UI/flatLight43.png" type="Texture" id=3]
[ext_resource path="res://assests/UI/flatLight23.png" type="Texture" id=4]
[ext_resource path="res://assests/UI/flatLight48.png" type="Texture" id=5]
[ext_resource path="res://assests/UI/flatLight27.png" type="Texture" id=6]
[ext_resource path="res://assests/UI/flatLight22.png" type="Texture" id=7]

[node name="MobileControls" type="CanvasLayer"]

[node name="Left" type="TouchScreenButton" parent="."]
modulate = Color( 1, 1, 1, 0.196078 )
position = Vector2( 60, 780 )
scale = Vector2( 2.5, 2.5 )
normal = ExtResource( 7 )
passby_press = true
action = "left"

[node name="Right" type="TouchScreenButton" parent="."]
modulate = Color( 1, 1, 1, 0.196078 )
position = Vector2( 299, 776 )
scale = Vector2( 2.5, 2.5 )
normal = ExtResource( 4 )
passby_press = true
action = "right"

[node name="Fire" type="TouchScreenButton" parent="."]
modulate = Color( 1, 1, 1, 0.196078 )
position = Vector2( 1725, 780 )
scale = Vector2( 1.5, 1.5 )
normal = ExtResource( 2 )
passby_press = true
action = "fire"

[node name="Jump" type="TouchScreenButton" parent="."]
modulate = Color( 1, 1, 1, 0.196078 )
position = Vector2( 1595, 640 )
scale = Vector2( 1.5, 1.5 )
normal = ExtResource( 3 )
passby_press = true
action = "jump"

[node name="Action" type="TouchScreenButton" parent="."]
modulate = Color( 1, 1, 1, 0.196078 )
position = Vector2( 1465, 780 )
scale = Vector2( 1.5, 1.5 )
normal = ExtResource( 6 )
passby_press = true
action = "action"

[node name="Sprint" type="TouchScreenButton" parent="."]
modulate = Color( 1, 1, 1, 0.196078 )
position = Vector2( 1595, 900 )
scale = Vector2( 1.5, 1.5 )
normal = ExtResource( 5 )
passby_press = true
action = "sprint"

[node name="Cover" type="TouchScreenButton" parent="."]
modulate = Color( 1, 1, 1, 0.196078 )
position = Vector2( 1771, 117 )
scale = Vector2( 1.5, 1.5 )
normal = ExtResource( 1 )
passby_press = true
action = "cover"
